…
## Włochy

Problemem jest to, że być może z jakichś względów w styczniu rodzi się więcej dzieci niż w lutym i tak dalej. Rzeczywiście, liczba urodzeń zależy od miesiąca, a przynajmniej od pory roku. Co prawda wydaje mi się, że ten efekt może nie mieć aż tak dużego znaczenia, bo mamy dane z różnych kontynentów, przez co się niejako uśrednia. Ale po pierwsze, miejsca urodzeń piłkarzy nie rozkładają się równomiernie po naszej planecie, po drugie, warto być dokładnym.

Stwierdziłem też, że skupię się na konkretnych krajach, bo wtedy łatwiej mi będzie dorzucić dane o liczbie urodzeń w poszczególnych miesiącach. Jak się okazało, był to bardzo dobry pomysł, ale z innego powodu.

W bazie mamy podany kraj pochodzenia zawodnika, niestety w formie identyfikatora liczbowego. W opisie danych niestety brakuje informacji, co oznaczają poszczególnie identyfikatory. Stwierdziłem, że zobaczę, które z nich są najpopularniejsze, a następnie na podstawie nazwisk piłkarzy o największej liczbie występów dowiem się, co to za kraj.


```r
foot %>% count(NationID, sort = TRUE)
```

```
## # A tibble: 213 x 2
##    NationID     n
##       <dbl> <int>
##  1      776  9511
##  2     1649  8596
##  3     1651  8231
##  4      796  6148
##  5      765  5035
##  6      769  5025
##  7      771  4784
##  8      787  3730
##  9      772  3693
## 10      788  3643
## # ... with 203 more rows
```
…
