…
## Dane

Będę korzystał z danych `babynames` dostępnych w pakiecie o tej samej
nazwie, w których podano liczbę nadawanych dzieciom imion w USA, od 1880
do 2017 roku. Poniżej pierwsze dziesięć wierszy.

``` r
library("tidyverse")
library("babynames")
theme_set(theme_classic())

babynames
```

    ## # A tibble: 1,924,665 x 5
    ##     year sex   name          n   prop
    ##    <dbl> <chr> <chr>     <int>  <dbl>
    ##  1  1880 F     Mary       7065 0.0724
    ##  2  1880 F     Anna       2604 0.0267
    ##  3  1880 F     Emma       2003 0.0205
    ##  4  1880 F     Elizabeth  1939 0.0199
    ##  5  1880 F     Minnie     1746 0.0179
    ##  6  1880 F     Margaret   1578 0.0162
    ##  7  1880 F     Ida        1472 0.0151
    ##  8  1880 F     Alice      1414 0.0145
    ##  9  1880 F     Bertha     1320 0.0135
    ## 10  1880 F     Sarah      1288 0.0132
    ## # ... with 1,924,655 more rows
…
## Popularność

Które imiona były nadawane najczęściej dla wszystkich dostępnych lat?
Pamiętam, że gdy pierwszy raz chciałem odpowiedzieć na to pytanie, bez
zastanowienia wywołałem funkcję `count()` na kolumnie `name`. Zwykle
jest to dobry pomysł – otrzymam, jak często dane imię występuje w bazie
i sortując wyniki malejąco, zobaczę najpopularniejsze:

``` r
count(babynames, name, sort = TRUE)
```

    ## # A tibble: 97,310 x 2
    ##    name        n
    ##    <chr>   <int>
    ##  1 Francis   276
    ##  2 James     276
    ##  3 Jean      276
    ##  4 Jesse     276
    ##  5 Jessie    276
    ##  6 John      276
    ##  7 Johnnie   276
    ##  8 Joseph    276
    ##  9 Lee       276
    ## 10 Leslie    276
    ## # ... with 97,300 more rows

Tylko że dane już są zagregowane rocznie, także żeby dostać prawidłowy
wynik, muszę uwzględnić kolumnę `n` (mam na myśli tę w pierwotnych
danych, bo akurat wyżej też mamy kolumnę `n`, funkcja `count()` ją
tworzy). Na szczęście wystarczy, że ustawię parametr `wt` – policzę
*sumę ważoną*.

``` r
count(babynames, name, wt = n, sort = TRUE)
```

    ## # A tibble: 97,310 x 2
    ##    name          n
    ##    <chr>     <int>
    ##  1 James   5173828
    ##  2 John    5137142
    ##  3 Robert  4834915
    ##  4 Michael 4372536
    ##  5 Mary    4138360
    ##  6 William 4118553
    ##  7 David   3624225
    ##  8 Joseph  2614083
    ##  9 Richard 2572613
    ## 10 Charles 2398453
    ## # ... with 97,300 more rows
…
Po pierwsze, zauważmy, że 276 to dokładnie dwa razy więcej – to pewnie
nie jest przypadek. Po drugie, w danych oprócz informacji o imieniu,
jest też kolumna z płcią. Może w każdym roku mamy i mężczyzn, i kobiety
o imieniu John? Hmm, co prawa są imiona, które pasują do obu płci, ale
John? Może w kolumnie `n` dla “kobiet Johnów” występuje 0? Zamiast
zastanawiać się zbyt długo, po prostu sprawdźmy.

``` r
filter(babynames, name == "John")
```

    ## # A tibble: 276 x 5
    ##     year sex   name      n     prop
    ##    <dbl> <chr> <chr> <int>    <dbl>
    ##  1  1880 F     John     46 0.000471
    ##  2  1880 M     John   9655 0.0815  
    ##  3  1881 F     John     26 0.000263
    ##  4  1881 M     John   8769 0.0810  
    ##  5  1882 F     John     40 0.000346
    ##  6  1882 M     John   9557 0.0783  
    ##  7  1883 F     John     40 0.000333
    ##  8  1883 M     John   8894 0.0791  
    ##  9  1884 F     John     40 0.000291
    ## 10  1884 M     John   9388 0.0765  
    ## # ... with 266 more rows
…
Wygląda na to, że jednak mamy w danych kobiety o takim imieniu, i to
zarówno w XIX, jak i w XXI wieku. Powodów może być wiele. Powiedzmy, że
na wszelki wypadek lepiej takich przypadków nie uwzględniać (może to
błędy?). Najprostsze rozwiązanie, jakie przyszło mi do głowy, to dodanie
zmiennej `sex` do `count()`. Wtedy zliczę imiona oddzielnie dla kobiet i
mężczyzn, dzięki czemu te “dziwne” przypadki będą nisko w rankingu.

``` r
count(babynames, sex, name, wt = n, sort = TRUE)
```

    ## # A tibble: 107,973 x 3
    ##    sex   name          n
    ##    <chr> <chr>     <int>
    ##  1 M     James   5150472
    ##  2 M     John    5115466
    ##  3 M     Robert  4814815
    ##  4 M     Michael 4350824
    ##  5 F     Mary    4123200
    ##  6 M     William 4102604
    ##  7 M     David   3611329
    ##  8 M     Joseph  2603445
    ##  9 M     Richard 2563082
    ## 10 M     Charles 2386048
    ## # ... with 107,963 more rows
…
